PIPELINE/pipeline_tb.vcd
$date
	Fri Dec 01 21:05:33 2023
$end
$version
	Icarus Verilog
$end
$timescale
	1s
$end
$scope module pipeline_tb $end
$var reg 1 ! clk $end
$var reg 32 " initial_address [31:0] $end
$var reg 1 # reset $end
$var reg 1 $ tr $end
$scope module dut $end
$var wire 1 ! clk $end
$var wire 32 % initial_address [31:0] $end
$var wire 1 # reset $end
$var wire 1 $ tr $end
$var wire 2 & SEL_RS2_FORWARD [1:0] $end
$var wire 2 ' SEL_RS1_FORWARD [1:0] $end
$var wire 1 ( RU_WRITE_WB $end
$var wire 1 ) RU_WRITE_ME $end
$var wire 1 * RU_WRITE_EX $end
$var wire 1 + RU_WRITE $end
$var wire 2 , RU_DATA_SRC_WB [1:0] $end
$var wire 2 - RU_DATA_SRC_ME [1:0] $end
$var wire 2 . RU_DATA_SRC_EX [1:0] $end
$var wire 2 / RU_DATA_SRC [1:0] $end
$var wire 5 0 RS2_EX [4:0] $end
$var wire 32 1 RS2_DATA_FORWARD [31:0] $end
$var wire 5 2 RS2 [4:0] $end
$var wire 5 3 RS1_EX [4:0] $end
$var wire 32 4 RS1_DATA_FORWARD [31:0] $end
$var wire 5 5 RS1 [4:0] $end
$var wire 32 6 RESULT_ALU_WB [31:0] $end
$var wire 32 7 RESULT_ALU_ME [31:0] $end
$var wire 32 8 RESULT_ALU [31:0] $end
$var wire 32 9 REGISTER_DATA_2_ME [31:0] $end
$var wire 32 : REGISTER_DATA_2_EX [31:0] $end
$var wire 32 ; REGISTER_DATA_2 [31:0] $end
$var wire 32 < REGISTER_DATA_1_EX [31:0] $end
$var wire 32 = REGISTER_DATA_1 [31:0] $end
$var wire 5 > RD_WB [4:0] $end
$var wire 5 ? RD_ME [4:0] $end
$var wire 5 @ RD_EX [4:0] $end
$var wire 5 A RD [4:0] $end
$var wire 32 B PC_PLUS_4_WB [31:0] $end
$var wire 32 C PC_PLUS_4_ME [31:0] $end
$var wire 32 D PC_PLUS_4_EX [31:0] $end
$var wire 32 E PC_PLUS_4_DE [31:0] $end
$var wire 32 F PC_PLUS_4 [31:0] $end
$var wire 7 G OPCODE [6:0] $end
$var wire 1 H NEXT_PC_SRC $end
$var wire 32 I NEXT_ADDRESS_PC [31:0] $end
$var wire 32 J INSTRUCTION_DE [31:0] $end
$var wire 32 K INSTRUCTION [31:0] $end
$var wire 3 L IMM_SRC [2:0] $end
$var wire 32 M IMM_EXT_EX [31:0] $end
$var wire 32 N IMM_EXT [31:0] $end
$var wire 25 O IMM_DATA [24:0] $end
$var wire 7 P FUNCT7 [6:0] $end
$var wire 3 Q FUNCT3 [2:0] $end
$var wire 1 R DM_WRITE_ME $end
$var wire 1 S DM_WRITE_EX $end
$var wire 1 T DM_WRITE $end
$var wire 3 U DM_CTRL_ME [2:0] $end
$var wire 3 V DM_CTRL_EX [2:0] $end
$var wire 3 W DM_CTRL [2:0] $end
$var wire 32 X DATA_WRITE_REGISTER [31:0] $end
$var wire 32 Y DATA_MEMORY_READ_WB [31:0] $end
$var wire 32 Z DATA_MEMORY_READ [31:0] $end
$var wire 32 [ B_DATA_ALU [31:0] $end
$var wire 5 \ BR_OP_EX [4:0] $end
$var wire 5 ] BR_OP [4:0] $end
$var wire 32 ^ A_DATA_ALU [31:0] $end
$var wire 4 _ ALU_OP_EX [3:0] $end
$var wire 4 ` ALU_OP [3:0] $end
$var wire 1 a ALU_B_SRC_EX $end
$var wire 1 b ALU_B_SRC $end
$var wire 2 c ALU_A_SRC_EX [1:0] $end
$var wire 2 d ALU_A_SRC [1:0] $end
$var wire 32 e ADDRESS_PC_EX [31:0] $end
$var wire 32 f ADDRESS_PC_DE [31:0] $end
$var wire 32 g ADDRESS_PC [31:0] $end
$var reg 32 h ZERO_ALU_A_SRC [31:0] $end
$scope module alu $end
$var wire 32 i and_result [31:0] $end
$var wire 3 j func3 [2:0] $end
$var wire 32 k or_result [31:0] $end
$var wire 1 l subsra $end
$var wire 32 m xor_result [31:0] $end
$var wire 32 n sum_result [31:0] $end
$var wire 32 o shra_result [31:0] $end
$var wire 32 p shr_result [31:0] $end
$var wire 32 q shl_result [31:0] $end
$var wire 32 r operand2 [31:0] $end
$var wire 32 s operand1 [31:0] $end
$var wire 32 t lt_result [31:0] $end
$var wire 32 u diff_result [31:0] $end
$var reg 32 v result [31:0] $end
$upscope $end
$scope module branch_unit $end
$var wire 32 w rs2 [31:0] $end
$var wire 32 x rs1 [31:0] $end
$var wire 5 y br_op [4:0] $end
$var reg 1 H jump $end
$upscope $end
$scope module control_unit $end
$var wire 7 z opcode [6:0] $end
$var wire 7 { funct7 [6:0] $end
$var wire 3 | funct3 [2:0] $end
$var reg 2 } alu_a_src [1:0] $end
$var reg 1 b alu_b_src $end
$var reg 4 ~ alu_op [3:0] $end
$var reg 5 !" br_op [4:0] $end
$var reg 3 "" dm_ctrl [2:0] $end
$var reg 1 T dm_write $end
$var reg 3 #" imm_src [2:0] $end
$var reg 2 $" ru_data_src [1:0] $end
$var reg 1 + ru_write $end
$upscope $end
$scope module data_memory $end
$var wire 1 R dmwr $end
$var wire 3 %" dmctrl [2:0] $end
$var wire 32 &" datawr [31:0] $end
$var wire 32 '" address [31:0] $end
$var reg 32 (" datard [31:0] $end
$upscope $end
$scope module de_ex $end
$var wire 2 )" alu_a_srcIn [1:0] $end
$var wire 1 b alu_b_srcIn $end
$var wire 4 *" alu_opIn [3:0] $end
$var wire 5 +" br_opIn [4:0] $end
$var wire 1 ! clk $end
$var wire 3 ," dm_ctrlIn [2:0] $end
$var wire 1 T dm_writeIn $end
$var wire 2 -" ru_data_srcIn [1:0] $end
$var wire 1 + ru_writeIn $end
$var wire 5 ." rdIn [4:0] $end
$var wire 32 /" incrementPCIn [31:0] $end
$var wire 32 0" immExtIn [31:0] $end
$var wire 5 1" RS2In [4:0] $end
$var wire 32 2" RS2DataIn [31:0] $end
$var wire 5 3" RS1In [4:0] $end
$var wire 32 4" RS1DataIn [31:0] $end
$var wire 32 5" PCIn [31:0] $end
$var reg 32 6" PCOut [31:0] $end
$var reg 32 7" PCOut_reg [31:0] $end
$var reg 32 8" RS1DataOut [31:0] $end
$var reg 32 9" RS1DataOut_reg [31:0] $end
$var reg 5 :" RS1Out [4:0] $end
$var reg 5 ;" RS1Out_reg [4:0] $end
$var reg 32 <" RS2DataOut [31:0] $end
$var reg 32 =" RS2DataOut_reg [31:0] $end
$var reg 5 >" RS2Out [4:0] $end
$var reg 5 ?" RS2Out_reg [4:0] $end
$var reg 2 @" alu_a_srcOut [1:0] $end
$var reg 2 A" alu_a_srcOut_reg [1:0] $end
$var reg 1 a alu_b_srcOut $end
$var reg 1 B" alu_b_srcOut_reg $end
$var reg 4 C" alu_opOut [3:0] $end
$var reg 4 D" alu_opOut_reg [3:0] $end
$var reg 5 E" br_opOut [4:0] $end
$var reg 5 F" br_opOut_reg [4:0] $end
$var reg 3 G" dm_ctrlOut [2:0] $end
$var reg 3 H" dm_ctrlOut_reg [2:0] $end
$var reg 1 S dm_writeOut $end
$var reg 1 I" dm_writeOut_reg $end
$var reg 32 J" immExtOut [31:0] $end
$var reg 32 K" immExtOut_reg [31:0] $end
$var reg 32 L" incrementPCOut [31:0] $end
$var reg 32 M" incrementPCOut_reg [31:0] $end
$var reg 5 N" rdOut [4:0] $end
$var reg 5 O" rdOut_reg [4:0] $end
$var reg 2 P" ru_data_srcOut [1:0] $end
$var reg 2 Q" ru_data_srcOut_reg [1:0] $end
$var reg 1 * ru_writeOut $end
$var reg 1 R" ru_writeOut_reg $end
$upscope $end
$scope module decoder $end
$var wire 32 S" instruction [31:0] $end
$var reg 3 T" funct3 [2:0] $end
$var reg 7 U" funct7 [6:0] $end
$var reg 25 V" immdata [24:0] $end
$var reg 7 W" opcode [6:0] $end
$var reg 5 X" rd [4:0] $end
$var reg 5 Y" rs1 [4:0] $end
$var reg 5 Z" rs2 [4:0] $end
$upscope $end
$scope module ex_me $end
$var wire 32 [" ALUResIn [31:0] $end
$var wire 32 \" RS2In [31:0] $end
$var wire 1 ! clk $end
$var wire 3 ]" dm_ctrlIn [2:0] $end
$var wire 1 T dm_writeIn $end
$var wire 32 ^" incrementPCIn [31:0] $end
$var wire 5 _" rdIn [4:0] $end
$var wire 2 `" ru_data_srcIn [1:0] $end
$var wire 1 * ru_writeIn $end
$var reg 32 a" ALUResOut [31:0] $end
$var reg 32 b" ALUResOut_reg [31:0] $end
$var reg 32 c" RS2Out [31:0] $end
$var reg 32 d" RS2Out_reg [31:0] $end
$var reg 3 e" dm_ctrlOut [2:0] $end
$var reg 3 f" dm_ctrlOut_reg [2:0] $end
$var reg 1 R dm_writeOut $end
$var reg 1 g" dm_writeOut_reg $end
$var reg 32 h" incrementPCOut [31:0] $end
$var reg 32 i" incrementPCOut_reg [31:0] $end
$var reg 5 j" rdOut [4:0] $end
$var reg 5 k" rdOut_reg [4:0] $end
$var reg 2 l" ru_data_srcOut [1:0] $end
$var reg 2 m" ru_data_srcOut_reg [1:0] $end
$var reg 1 ) ru_writeOut $end
$var reg 1 n" ru_writeOut_reg $end
$upscope $end
$scope module forwarding_unit $end
$var wire 5 o" rd_me [4:0] $end
$var wire 5 p" rs1_ex [4:0] $end
$var wire 5 q" rs2_ex [4:0] $end
$var wire 1 ) ru_write_me $end
$var wire 1 ( ru_write_wb $end
$var wire 5 r" rd_wb [4:0] $end
$var reg 2 s" rs1_sel [1:0] $end
$var reg 2 t" rs2_sel [1:0] $end
$upscope $end
$scope module if_de $end
$var wire 1 ! clk $end
$var wire 32 u" instructionIn [31:0] $end
$var wire 32 v" incrementPCIn [31:0] $end
$var wire 32 w" PCIn [31:0] $end
$var reg 32 x" PCOut [31:0] $end
$var reg 32 y" PCOut_reg [31:0] $end
$var reg 32 z" incrementPCOut [31:0] $end
$var reg 32 {" incrementPCOut_reg [31:0] $end
$var reg 32 |" instructionOut [31:0] $end
$var reg 32 }" instructionOut_reg [31:0] $end
$upscope $end
$scope module imm_unit $end
$var wire 25 ~" imm [24:0] $end
$var wire 3 !# immsrc [2:0] $end
$var reg 32 "# immext [31:0] $end
$upscope $end
$scope module instruction_memory $end
$var wire 32 ## address [31:0] $end
$var parameter 32 $# size_address $end
$var parameter 32 %# size_memory $end
$var reg 32 &# instruction [31:0] $end
$upscope $end
$scope module me_wb $end
$var wire 32 '# ALUResIn [31:0] $end
$var wire 32 (# DMDataRdIn [31:0] $end
$var wire 1 ! clk $end
$var wire 32 )# incrementPCIn [31:0] $end
$var wire 5 *# rdIn [4:0] $end
$var wire 2 +# ru_data_srcIn [1:0] $end
$var wire 1 ) ru_writeIn $end
$var reg 32 ,# ALUResOut [31:0] $end
$var reg 32 -# ALUResOut_reg [31:0] $end
$var reg 32 .# DMDataRdOut [31:0] $end
$var reg 32 /# DMDataRdOut_reg [31:0] $end
$var reg 32 0# incrementPCOut [31:0] $end
$var reg 32 1# incrementPCOut_reg [31:0] $end
$var reg 5 2# rdOut [4:0] $end
$var reg 5 3# rdOut_reg [4:0] $end
$var reg 2 4# ru_data_srcOut [1:0] $end
$var reg 2 5# ru_data_srcOut_reg [1:0] $end
$var reg 1 ( ru_writeOut $end
$var reg 1 6# ru_writeOut_reg $end
$upscope $end
$scope module mux2to1_B $end
$var wire 32 7# input_1 [31:0] $end
$var wire 32 8# input_2 [31:0] $end
$var wire 1 a select $end
$var reg 32 9# output_32 [31:0] $end
$upscope $end
$scope module mux2to1_PC $end
$var wire 32 :# input_2 [31:0] $end
$var wire 1 H select $end
$var wire 32 ;# input_1 [31:0] $end
$var reg 32 <# output_32 [31:0] $end
$upscope $end
$scope module mux3to1 $end
$var wire 32 =# input_1 [31:0] $end
$var wire 32 ># input_2 [31:0] $end
$var wire 32 ?# input_3 [31:0] $end
$var wire 2 @# select [1:0] $end
$var reg 32 A# output_32 [31:0] $end
$upscope $end
$scope module mux3to1_A $end
$var wire 32 B# input_1 [31:0] $end
$var wire 32 C# input_2 [31:0] $end
$var wire 32 D# input_3 [31:0] $end
$var wire 2 E# select [1:0] $end
$var reg 32 F# output_32 [31:0] $end
$upscope $end
$scope module mux_forward_rs1 $end
$var wire 32 G# input_1 [31:0] $end
$var wire 32 H# input_2 [31:0] $end
$var wire 32 I# input_3 [31:0] $end
$var wire 2 J# select [1:0] $end
$var reg 32 K# output_32 [31:0] $end
$upscope $end
$scope module mux_forward_rs2 $end
$var wire 32 L# input_1 [31:0] $end
$var wire 32 M# input_2 [31:0] $end
$var wire 32 N# input_3 [31:0] $end
$var wire 2 O# select [1:0] $end
$var reg 32 P# output_32 [31:0] $end
$upscope $end
$scope module program_counter $end
$var wire 1 ! clk $end
$var wire 32 Q# initial_address [31:0] $end
$var wire 32 R# next_address [31:0] $end
$var wire 1 # reset $end
$var reg 32 S# address [31:0] $end
$upscope $end
$scope module register_file $end
$var wire 1 ! clk $end
$var wire 32 T# data [31:0] $end
$var wire 5 U# rd [4:0] $end
$var wire 5 V# rs1 [4:0] $end
$var wire 32 W# rs1Data [31:0] $end
$var wire 5 X# rs2 [4:0] $end
$var wire 32 Y# rs2Data [31:0] $end
$var wire 1 $ tr $end
$var wire 1 ( writeEnable $end
$scope begin $ivl_for_loop0 $end
$var integer 32 Z# i [31:0] $end
$upscope $end
$upscope $end
$scope module sum4 $end
$var wire 32 [# input_1 [31:0] $end
$var reg 32 \# output_32 [31:0] $end
$upscope $end
$upscope $end
$upscope $end
$enddefinitions $end
$comment Show the parameter values. $end
$dumpall
b10000000000 %#
b100000 $#
$end
#0
$dumpvars
bx \#
bx [#
b0 Z#
bx Y#
bx X#
bx W#
bx V#
bx U#
bx T#
bx S#
bx R#
b0 Q#
bx P#
bx O#
bx N#
bx M#
bx L#
bx K#
bx J#
bx I#
bx H#
bx G#
bx F#
bx E#
b0 D#
bx C#
bx B#
bx A#
bx @#
bx ?#
bx >#
bx =#
bx <#
bx ;#
bx :#
bx 9#
bx 8#
bx 7#
x6#
bx 5#
bx 4#
bx 3#
bx 2#
bx 1#
bx 0#
bx /#
bx .#
bx -#
bx ,#
bx +#
bx *#
bx )#
bx (#
bx '#
bx &#
bx ##
bx "#
bx !#
bx ~"
bx }"
bx |"
bx {"
bx z"
bx y"
bx x"
bx w"
bx v"
bx u"
bx t"
bx s"
bx r"
bx q"
bx p"
bx o"
xn"
bx m"
bx l"
bx k"
bx j"
bx i"
bx h"
xg"
bx f"
bx e"
bx d"
bx c"
bx b"
bx a"
bx `"
bx _"
bx ^"
bx ]"
bx \"
bx ["
bx Z"
bx Y"
bx X"
bx W"
bx V"
bx U"
bx T"
bx S"
xR"
bx Q"
bx P"
bx O"
bx N"
bx M"
bx L"
bx K"
bx J"
xI"
bx H"
bx G"
bx F"
bx E"
bx D"
bx C"
xB"
bx A"
bx @"
bx ?"
bx >"
bx ="
bx <"
bx ;"
bx :"
bx 9"
bx 8"
bx 7"
bx 6"
bx 5"
bx 4"
bx 3"
bx 2"
bx 1"
bx 0"
bx /"
bx ."
bx -"
bx ,"
bx +"
bx *"
bx )"
bx ("
bx '"
bx &"
bx %"
bx $"
bx #"
bx ""
bx !"
bx ~
bx }
bx |
bx {
bx z
bx y
bx x
bx w
bx v
bx u
b0x t
bx s
bx r
bx q
bx p
bx o
bx n
bx m
xl
bx k
bx j
bx i
b0 h
bx g
bx f
bx e
bx d
bx c
xb
xa
bx `
bx _
bx ^
bx ]
bx \
bx [
bx Z
bx Y
bx X
bx W
bx V
bx U
xT
xS
xR
bx Q
bx P
bx O
bx N
bx M
bx L
bx K
bx J
bx I
0H
bx G
bx F
bx E
bx D
bx C
bx B
bx A
bx @
bx ?
bx >
bx =
bx <
bx ;
bx :
bx 9
bx 8
bx 7
bx 6
bx 5
bx 4
bx 3
bx 2
bx 1
bx 0
bx /
bx .
bx -
bx ,
x+
x*
x)
x(
bx '
bx &
b0 %
x$
1#
b0 "
0!
$end
#5
b100 I
b100 <#
b100 R#
b10000000000000010010011 K
b10000000000000010010011 u"
b10000000000000010010011 &#
b100 F
b100 v"
b100 ;#
b100 \#
b0 g
b0 w"
b0 ##
b0 S#
b0 [#
1!
#10
b100 {"
b10000000000000010010011 }"
b0 y"
0!
1$
0#
#15
b1000 I
b1000 <#
b1000 R#
b100 N
b100 0"
b100 "#
b0 /
b0 $"
b0 -"
b0xxx ]
b0xxx !"
b0xxx +"
0T
1b
b0 d
b0 }
b0 )"
b0 L
b0 #"
b0 !#
b0 `
b0 ~
b0 *"
1+
b10100000000000110010011 K
b10100000000000110010011 u"
b10100000000000110010011 &#
b1000 F
b1000 v"
b1000 ;#
b1000 \#
b1000000000000001 O
b1000000000000001 V"
b1000000000000001 ~"
b1 A
b1 ."
b1 X"
b100 2
b100 1"
b100 Z"
b100 X#
b0 =
b0 4"
b0 W#
b0 5
b0 3"
b0 Y"
b0 V#
b0 P
b0 {
b0 U"
b0 Q
b0 |
b0 T"
b10011 G
b10011 z
b10011 W"
b100000 Z#
b100 g
b100 w"
b100 ##
b100 S#
b100 [#
b100 E
b100 /"
b100 z"
b10000000000000010010011 J
b10000000000000010010011 S"
b10000000000000010010011 |"
b0 f
b0 5"
b0 x"
1!
#20
b1000 {"
b10100000000000110010011 }"
b100 y"
1R"
b0 Q"
b0xxx F"
0I"
1B"
b0 A"
b0 D"
b1 O"
b100 K"
b0 9"
b100 ?"
b0 ;"
b0 7"
b100 M"
0g"
0!
#25
b101 N
b101 0"
b101 "#
b100 m
b100 k
b0 i
b100 8
b100 v
b100 ["
b100 :#
b1100 I
b1100 <#
b1100 R#
b1010000000000011 O
b1010000000000011 V"
b1010000000000011 ~"
b11 A
b11 ."
b11 X"
b101 2
b101 1"
b101 Z"
b101 X#
0l
b0 j
b0 o
b0 p
b0 q
b1 t
b11111111111111111111111111111100 u
b100 n
b100 [
b100 r
b100 9#
b0 ^
b0 s
b0 F#
b0 Z
b0 ("
b0 (#
b100000010000000100011 K
b100000010000000100011 u"
b100000010000000100011 &#
b1100 F
b1100 v"
b1100 ;#
b1100 \#
b100000 Z#
b1000 E
b1000 /"
b1000 z"
b10100000000000110010011 J
b10100000000000110010011 S"
b10100000000000110010011 |"
b100 f
b100 5"
b100 x"
1*
b0 .
b0 P"
b0 `"
b0xxx \
b0xxx y
b0xxx E"
0S
1a
b0 c
b0 @"
b0 E#
b0 _
b0 C"
b1 @
b1 N"
b1 _"
b100 M
b100 J"
b100 8#
b0 <
b0 x
b0 8"
b0 B#
b0 G#
b100 0
b100 >"
b100 q"
b0 3
b0 :"
b0 p"
b0 e
b0 6"
b0 C#
b100 D
b100 L"
b100 ^"
0R
b1000 g
b1000 w"
b1000 ##
b1000 S#
b1000 [#
1!
#30
b0 /#
1n"
b0 m"
b1 k"
b100 b"
b100 i"
b11 O"
b101 K"
b101 ?"
b100 7"
b1000 M"
b1100 {"
b100000010000000100011 }"
b1000 y"
0!
#35
b10000 I
b10000 <#
b10000 R#
b101 m
b101 k
b101 8
b101 v
b101 ["
b101 :#
b0 N
b0 0"
b0 "#
bx /
bx $"
bx -"
b10 W
b10 ""
b10 ,"
b10 ]"
1T
b1 L
b1 #"
b1 !#
0+
b10001000000011 K
b10001000000011 u"
b10001000000011 &#
b10000 F
b10000 v"
b10000 ;#
b10000 \#
b11111111111111111111111111111011 u
b101 n
b101 [
b101 r
b101 9#
b10000001000000 O
b10000001000000 V"
b10000001000000 ~"
b0 A
b0 ."
b0 X"
b1 2
b1 1"
b1 Z"
b1 X#
b10 Q
b10 |
b10 T"
b100011 G
b100011 z
b100011 W"
b100000 Z#
b1100 g
b1100 w"
b1100 ##
b1100 S#
b1100 [#
b0 Y
b0 .#
b0 >#
1)
b0 -
b0 l"
b0 +#
b1 ?
b1 j"
b1 o"
b1 *#
b100 7
b100 '"
b100 a"
b100 '#
b100 H#
b100 M#
b100 C
b100 h"
b100 )#
b11 @
b11 N"
b11 _"
b101 M
b101 J"
b101 8#
b101 0
b101 >"
b101 q"
b100 e
b100 6"
b100 C#
b1000 D
b1000 L"
b1000 ^"
b1100 E
b1100 /"
b1100 z"
b100000010000000100011 J
b100000010000000100011 S"
b100000010000000100011 |"
b1000 f
b1000 5"
b1000 x"
1!
#40
b10000 {"
b10001000000011 }"
b1100 y"
0R"
bx Q"
b10 H"
1I"
b0 O"
b0 K"
b1 ?"
b1000 7"
b1100 M"
b10 f"
1g"
b11 k"
b101 b"
b1000 i"
16#
b0 5#
b1 3#
b100 -#
b100 1#
0!
#45
b1 /
b1 $"
b1 -"
0T
b0 L
b0 #"
b0 !#
1+
b0 m
b0 k
b0 8
b0 v
b0 ["
b0 :#
b10100 I
b10100 <#
b10100 R#
b1000100 O
b1000100 V"
b1000100 ~"
b100 A
b100 ."
b100 X"
b0 ;
b0 2"
b0 Y#
b0 2
b0 1"
b0 Z"
b0 X#
b11 G
b11 z
b11 W"
b0 t
b0 u
b0 n
b0 [
b0 r
b0 9#
b100 1
b100 P#
b10 &
b10 t"
b10 O#
b100 X
b100 A#
b100 I#
b100 N#
b100 T#
b1100000010000000100011 K
b1100000010000000100011 u"
b1100000010000000100011 &#
b10100 F
b10100 v"
b10100 ;#
b10100 \#
b100000 Z#
b10000 E
b10000 /"
b10000 z"
b10001000000011 J
b10001000000011 S"
b10001000000011 |"
b1100 f
b1100 5"
b1100 x"
0*
bx .
bx P"
bx `"
b10 V
b10 G"
1S
b0 @
b0 N"
b0 _"
b0 M
b0 J"
b0 8#
b1 0
b1 >"
b1 q"
b1000 e
b1000 6"
b1000 C#
b1100 D
b1100 L"
b1100 ^"
b10 U
b10 %"
b10 e"
1R
b11 ?
b11 j"
b11 o"
b11 *#
b101 7
b101 '"
b101 a"
b101 '#
b101 H#
b101 M#
b1000 C
b1000 h"
b1000 )#
1(
b0 ,
b0 4#
b0 @#
b1 >
b1 r"
b1 2#
b1 U#
b100 6
b100 ,#
b100 =#
b100 B
b100 0#
b100 ?#
b10000 g
b10000 w"
b10000 ##
b10000 S#
b10000 [#
1!
#50
b11 3#
b101 -#
b1000 1#
0n"
bx m"
0g"
b0 k"
b0 b"
b1100 i"
1R"
b1 Q"
0I"
b100 O"
b0 ="
b0 ?"
b1100 7"
b10000 M"
b10100 {"
b1100000010000000100011 }"
b10000 y"
0!
#55
b11000 I
b11000 <#
b11000 R#
b101 1
b101 P#
bx /
bx $"
bx -"
1T
b1 L
b1 #"
b1 !#
0+
b10001010000011 K
b10001010000011 u"
b10001010000011 &#
b11000 F
b11000 v"
b11000 ;#
b11000 \#
b101 X
b101 A#
b101 I#
b101 N#
b101 T#
bx Z
bx ("
bx (#
b110000001000000 O
b110000001000000 V"
b110000001000000 ~"
b0 A
b0 ."
b0 X"
bx ;
bx 2"
bx Y#
b11 2
b11 1"
b11 Z"
b11 X#
b100011 G
b100011 z
b100011 W"
b100000 Z#
b10100 g
b10100 w"
b10100 ##
b10100 S#
b10100 [#
b11 >
b11 r"
b11 2#
b11 U#
b101 6
b101 ,#
b101 =#
b1000 B
b1000 0#
b1000 ?#
0)
bx -
bx l"
bx +#
0R
b0 ?
b0 j"
b0 o"
b0 *#
b0 7
b0 '"
b0 a"
b0 '#
b0 H#
b0 M#
b1100 C
b1100 h"
b1100 )#
1*
b1 .
b1 P"
b1 `"
0S
b100 @
b100 N"
b100 _"
b0 :
b0 w
b0 <"
b0 \"
b0 7#
b0 L#
b0 0
b0 >"
b0 q"
b1100 e
b1100 6"
b1100 C#
b10000 D
b10000 L"
b10000 ^"
b10100 E
b10100 /"
b10100 z"
b1100000010000000100011 J
b1100000010000000100011 S"
b1100000010000000100011 |"
b10000 f
b10000 5"
b10000 x"
1!
#60
b101 ;
b101 2"
b101 Y#
b11000 {"
b10001010000011 }"
b10100 y"
0R"
bx Q"
1I"
b0 O"
bx ="
b11 ?"
b10000 7"
b10100 M"
1n"
b1 m"
1g"
b100 k"
b0 d"
b10000 i"
06#
bx 5#
b0 3#
bx /#
b0 -#
b1100 1#
0!
#65
b1 /
b1 $"
b1 -"
0T
b0 L
b0 #"
b0 !#
1+
b11100 I
b11100 <#
b11100 R#
b1000101 O
b1000101 V"
b1000101 ~"
b101 A
b101 ."
b101 X"
b0 ;
b0 2"
b0 Y#
b0 2
b0 1"
b0 Z"
b0 X#
b11 G
b11 z
b11 W"
bx K
bx u"
bx &#
b11100 F
b11100 v"
b11100 ;#
b11100 \#
b100000 Z#
b11000 E
b11000 /"
b11000 z"
b10001010000011 J
b10001010000011 S"
b10001010000011 |"
b10100 f
b10100 5"
b10100 x"
0*
bx .
bx P"
bx `"
1S
b0 @
b0 N"
b0 _"
bx :
bx w
bx <"
bx \"
bx 7#
bx L#
b11 0
b11 >"
b11 q"
b10000 e
b10000 6"
b10000 C#
b10100 D
b10100 L"
b10100 ^"
1)
b1 -
b1 l"
b1 +#
1R
b100 ?
b100 j"
b100 o"
b100 *#
b0 9
b0 &"
b0 c"
b10000 C
b10000 h"
b10000 )#
0(
bx ,
bx 4#
bx @#
b0 >
b0 r"
b0 2#
b0 U#
bx Y
bx .#
bx >#
b0 6
b0 ,#
b0 =#
b1100 B
b1100 0#
b1100 ?#
b11000 g
b11000 w"
b11000 ##
b11000 S#
b11000 [#
1!
#70
16#
b1 5#
b100 3#
b10000 1#
0n"
bx m"
0g"
b0 k"
bx d"
b10100 i"
1R"
b1 Q"
0I"
b101 O"
b0 ="
b0 ?"
b10100 7"
b11000 M"
b11100 {"
bx }"
b11000 y"
0!
#75
b100000 I
b100000 <#
b100000 R#
bx 1
bx P#
bx N
bx 0"
bx "#
b100000 F
b100000 v"
b100000 ;#
b100000 \#
bx X
bx A#
bx I#
bx N#
bx T#
b0 Z
b0 ("
b0 (#
bx O
bx V"
bx ~"
bx A
bx ."
bx X"
bx ;
bx 2"
bx Y#
bx 2
bx 1"
bx Z"
bx X#
bx =
bx 4"
bx W#
bx 5
bx 3"
bx Y"
bx V#
bx P
bx {
bx U"
bx Q
bx |
bx T"
bx G
bx z
bx W"
b100000 Z#
b11100 g
b11100 w"
b11100 ##
b11100 S#
b11100 [#
1(
b1 ,
b1 4#
b1 @#
b100 >
b100 r"
b100 2#
b100 U#
b10000 B
b10000 0#
b10000 ?#
0)
bx -
bx l"
bx +#
0R
b0 ?
b0 j"
b0 o"
b0 *#
bx 9
bx &"
bx c"
b10100 C
b10100 h"
b10100 )#
1*
b1 .
b1 P"
b1 `"
0S
b101 @
b101 N"
b101 _"
b0 :
b0 w
b0 <"
b0 \"
b0 7#
b0 L#
b0 0
b0 >"
b0 q"
b10100 e
b10100 6"
b10100 C#
b11000 D
b11000 L"
b11000 ^"
b11100 E
b11100 /"
b11100 z"
bx J
bx S"
bx |"
b11000 f
b11000 5"
b11000 x"
1!
#80
b100000 {"
b11100 y"
bx O"
bx K"
bx ="
bx 9"
bx ?"
bx ;"
b11000 7"
b11100 M"
1n"
b1 m"
b101 k"
b0 d"
b11000 i"
06#
bx 5#
b0 3#
b0 /#
b10100 1#
0!
#85
bx m
bx k
bx i
bx 8
bx v
bx ["
bx :#
b100100 I
b100100 <#
b100100 R#
bx [
bx r
bx 9#
bx o
bx p
bx q
b0x t
bx u
bx n
bx ^
bx s
bx F#
b100100 F
b100100 v"
b100100 ;#
b100100 \#
b100000 Z#
b100000 E
b100000 /"
b100000 z"
b11100 f
b11100 5"
b11100 x"
bx @
bx N"
bx _"
bx M
bx J"
bx 8#
bx :
bx w
bx <"
bx \"
bx 7#
bx L#
bx <
bx x
bx 8"
bx B#
bx G#
bx 0
bx >"
bx q"
bx 3
bx :"
bx p"
b11000 e
b11000 6"
b11000 C#
b11100 D
b11100 L"
b11100 ^"
1)
b1 -
b1 l"
b1 +#
b101 ?
b101 j"
b101 o"
b101 *#
b0 9
b0 &"
b0 c"
b11000 C
b11000 h"
b11000 )#
0(
bx ,
bx 4#
bx @#
b0 >
b0 r"
b0 2#
b0 U#
b0 Y
b0 .#
b0 >#
b10100 B
b10100 0#
b10100 ?#
b100000 g
b100000 w"
b100000 ##
b100000 S#
b100000 [#
1!
#90
16#
b1 5#
b101 3#
b11000 1#
bx k"
bx d"
bx b"
b11100 i"
b11100 7"
b100000 M"
b100100 {"
b100000 y"
0!
#95
b101000 I
b101000 <#
b101000 R#
b0 1
b0 P#
b101000 F
b101000 v"
b101000 ;#
b101000 \#
b0 X
b0 A#
b0 I#
b0 N#
b0 T#
bx Z
bx ("
bx (#
b100000 Z#
b100100 g
b100100 w"
b100100 ##
b100100 S#
b100100 [#
1(
b1 ,
b1 4#
b1 @#
b101 >
b101 r"
b101 2#
b101 U#
b11000 B
b11000 0#
b11000 ?#
bx ?
bx j"
bx o"
bx *#
bx 9
bx &"
bx c"
bx 7
bx '"
bx a"
bx '#
bx H#
bx M#
b11100 C
b11100 h"
b11100 )#
b11100 e
b11100 6"
b11100 C#
b100000 D
b100000 L"
b100000 ^"
b100100 E
b100100 /"
b100100 z"
b100000 f
b100000 5"
b100000 x"
1!
#100
b101000 {"
b100100 y"
b100000 7"
b100100 M"
b100000 i"
bx 3#
bx /#
bx -#
b11100 1#
0!
#105
bx 1
bx P#
b101100 I
b101100 <#
b101100 R#
bx X
bx A#
bx I#
bx N#
bx T#
b101100 F
b101100 v"
b101100 ;#
b101100 \#
b100000 Z#
b101000 E
b101000 /"
b101000 z"
b100100 f
b100100 5"
b100100 x"
b100000 e
b100000 6"
b100000 C#
b100100 D
b100100 L"
b100100 ^"
b100000 C
b100000 h"
b100000 )#
bx >
bx r"
bx 2#
bx U#
bx Y
bx .#
bx >#
bx 6
bx ,#
bx =#
b11100 B
b11100 0#
b11100 ?#
b101000 g
b101000 w"
b101000 ##
b101000 S#
b101000 [#
1!
#110
b100000 1#
b100100 i"
b100100 7"
b101000 M"
b101100 {"
b101000 y"
0!
